ca/lab0/chisel-design-sample/test_run_dir/md5_should_do_right_thing/md5.vcd
$date
2022-09-23T09:11+0000
$end
$version
0.2
$end
$comment

$end
$timescale 1ns  $end
$scope module md5 $end
 $var wire 32 ! AA $end
 $var wire 32 " BB $end
 $var wire 32 # A $end
 $var wire 32 $ B $end
 $var wire 32 % C $end
 $var wire 32 & D $end
 $var wire 32 ' CC $end
 $var wire 1 ( r $end
 $var wire 32 ) DD $end
 $var wire 8 * next_state $end
 $var wire 1 + out_r $end
 $var wire 1 , clock $end
 $var wire 128 - io_out $end
 $var wire 8 . state $end
 $var wire 1 8 reset $end
 $var wire 32 < next_D $end
 $var wire 32 = next_A $end
 $var wire 32 > next_B $end
 $var wire 32 ? next_C $end
 $var wire 1 @ io_out_valid $end
 $var wire 1 A io_in_valid $end
 $var wire 1 B io_ready $end
 $var wire 1 C printf_1 $end
 $var wire 1 D printf $end
 $var wire 256 E msg_hi $end
 $var wire 4 F phase $end
 $var wire 128 G io_in $end
 $var wire 512 H msg $end
 $var wire 256 I msg_lo $end
 $var wire 32 J A_A $end
 $var wire 32 K A_B $end
 $var wire 32 L A_C $end
 $var wire 32 M A_D $end
  $scope module r $end
   $var wire 32 / io_c $end
   $var wire 32 0 io_d $end
   $var wire 32 1 io_a $end
   $var wire 32 2 io_b $end
   $var wire 32 3 io_m $end
   $var wire 5 4 io_s $end
   $var wire 32 5 io_t $end
   $var wire 2 6 io_r $end
   $var wire 32 7 result $end
   $var wire 32 9 left_move $end
   $var wire 32 : right_move $end
   $var wire 32 ; io_next_a $end
  $upscope $end
$upscope $end
$enddefinitions $end
$dumpvars
b00000000 *
b00 6
b00000000000000000000000000000000 '
b00000000000000000000000000000000 &
b00000000000000000000000000000000 )
08
b00000000000000000000000000000000 #
b00000000000000000000000000000000 "
b00000000000000000000000000000000 %
b00000000000000000000000000000000 $
b00000000000000000000000000000000000000000000000000000000000000000000000000000000000000000000000000000000000000000000000000000000000000000000000000000000000000000000000000000000000000000000000000000000000000000000000000000000000000000000000000000000000000000000000000000000000000000000000000000000000000000000000000000000000000000000000000000000000000000000000000000000000000000000000000000000000000000000000000000000000000000000000000000000000000000000000000000000000000000000000000000000000000000000000000000000 H
b0000 F
b00000000000000000000000000000000 !
0@
b00000000000000000000000000000000 ;
0A
b00000000000000000000000000000000 :
0B
b00000000000000000000000000000000 =
0C
b00000000000000000000000000000000 <
0D
b00000000000000000000000000000000 7
b00000000000000000000000000000000 9
b00000000000000000000000000000000 3
b00000000000000000000000000000000 2
b00000000000000000000000000000000 5
b00000000000000000000000000000000 /
b00000000 .
b00000000000000000000000000000000000000000000000000000000000000000000000000000000000000000000000000000000000000000000000000000000 -
b00000000000000000000000000000000 1
b00000000000000000000000000000000 0
b00000000000000000000000000000000 K
b00000000000000000000000000000000 J
b00000000000000000000000000000000 M
b0000000000000000000000000000000000000000000000000000000000000000000000000000000000000000000000000000000000000000000000000000000000000000000000000000000000000000000000000000000000000000000000000000000000000000000000000000000000000000000000000000000000000000 E
b00000 4
b00000000000000000000000000000000 L
b00000000000000000000000000000000 ?
b00000000000000000000000000000000 >
b0000000000000000000000000000000000000000000000000000000000000000000000000000000000000000000000000000000000000000000000000000000000000000000000000000000000000000000000000000000000000000000000000000000000000000000000000000000000000000000000000000000000000000 I
0(
0+
b00000000000000000000000000000000000000000000000000000000000000000000000000000000000000000000000000000000000000000000000000000000 G
0,
$end
#0
18
b01100111010001010010001100000001 J
b11101111110011011010101110001001 K
b10011000101110101101110011111110 L
b00010000001100100101010001110110 M
#1
1B
b01100111010001010010001100000001 #
b11101111110011011010101110001001 $
b10011000101110101101110011111110 %
b00010000001100100101010001110110 &
b00000001 *
1,
b01100111010001010010001100000001111011111100110110101011100010011001100010111010110111001111111000010000001100100101010001110110 -
b00000001 .
b00010000001100100101010001110110 <
b01100111010001010010001100000001 =
b11101111110011011010101110001001 >
b10011000101110101101110011111110 ?
#6
1A
b0000000000000000000000000000000000000000000000000000000000000000000000000000000000000000000000000000000000000000000000000011010100000000000000000000000000000000000000000000000000000000000000000000000000000000000000000000000000000000000000000000000000110101 E
b00000000000000000000000000000000000000000000000000000000000000000000000000000000000000000000000000000000000000000000000000110101 G
08
b0000000000000000000000000000000000000000000000000000000000000000000000000000000000000000000000000000000000000000000000000011010100000000000000000000000000000000000000000000000000000000000000000000000000000000000000000000000000000000000000000000000000110101 I
b00000010 *
0,
#11
b01100111010001010010001100000001 !
b11101111110011011010101110001001 "
0B
b10011000101110101101110011111110 '
b00000000000000000000000000000000000000000000000000000000000000000000000000000000000000000000000000000000000000000000000000110101000000000000000000000000000000000000000000000000000000000000000000000000000000000000000000000000000000000000000000000000001101010000000000000000000000000000000000000000000000000000000000000000000000000000000000000000000000000000000000000000000000000011010100000000000000000000000000000000000000000000000000000000000000000000000000000000000000000000000000000000000000000000000000110101 H
b00010000001100100101010001110110 )
1,
b00000010 .
b10011000101110101101110011111110 /
b00010000001100100101010001110110 0
b01100111010001010010001100000001 1
b11101111110011011010101110001001 2
b00000000000000000000000000110101 3
b00111 4
b11010111011010101010010001111000 5
b11010111011010101010010010101100 7
b10110101010100100101011000000000 9
b00000000000000000000000001101011 :
b10100101001000000000000111110100 ;
b10100101001000000000000111110100 =
#16
0,
#21
b10100101001000000000000111110100 #
b0001 F
1,
b10100101001000000000000111110100111011111100110110101011100010011001100010111010110111001111111000010000001100100101010001110110 -
b11101111110011011010101110001001 /
b10011000101110101101110011111110 0
b00010000001100100101010001110110 1
b10100101001000000000000111110100 2
b00000000000000000000000000000000 3
b01100 4
b11101000110001111011011101010110 5
b10110110100101001110100101010110 7
b01001110100101010110000000000000 9
b00000000000000000000101101101001 :
b11110011101101010110110101011101 ;
b11110011101101010110110101011101 <
#26
0,
#31
b11110011101101010110110101011101 &
b0010 F
1,
b10100101001000000000000111110100111011111100110110101011100010011001100010111010110111001111111011110011101101010110110101011101 -
b10100101001000000000000111110100 /
b11101111110011011010101110001001 0
b10011000101110101101110011111110 1
b11110011101101010110110101011101 2
b10001 4
b00100100001000000111000011011011 5
b01101010010000111101000110101101 7
b10100011010110100000000000000000 9
b00000000000000001101010010000111 :
b10010111000100000100000111100100 ;
b10010111000100000100000111100100 ?
#36
0,
#41
b10010111000100000100000111100100 %
b0011 F
1,
b10100101001000000000000111110100111011111100110110101011100010011001011100010000010000011110010011110011101101010110110101011101 -
b11110011101101010110110101011101 /
b10100101001000000000000111110100 0
b11101111110011011010101110001001 1
b10010111000100000100000111100100 2
b10110 4
b11000001101111011100111011101110 5
b01100100101110111011101111001011 7
b11110010110000000000000000000000 9
b00000000000110010010111011101110 :
b10001001111010010111000011010010 ;
b10001001111010010111000011010010 >
#46
0,
#51
b10001001111010010111000011010010 $
b0100 F
1,
b10100101001000000000000111110100100010011110100101110000110100101001011100010000010000011110010011110011101101010110110101011101 -
b10010111000100000100000111100100 /
b11110011101101010110110101011101 0
b10100101001000000000000111110100 1
b10001001111010010111000011010010 2
b00000000000000000000000000110101 3
b00111 4
b11110101011111000000111110101111 5
b10001101101100000101111110100101 7
b11011000001011111101001010000000 9
b00000000000000000000000001000110 :
b01100010000110010100001110011000 ;
b01100010000110010100001110011000 =
#56
0,
#61
b01100010000110010100001110011000 #
b0101 F
1,
b01100010000110010100001110011000100010011110100101110000110100101001011100010000010000011110010011110011101101010110110101011101 -
b10001001111010010111000011010010 /
b10010111000100000100000111100100 0
b11110011101101010110110101011101 1
b01100010000110010100001110011000 2
b00000000000000000000000000000000 3
b01100 4
b01000111100001111100011000101010 5
b11010000010001100111010001111011 7
b01100111010001111011000000000000 9
b00000000000000000000110100000100 :
b11001001011000010000000010011100 ;
b11001001011000010000000010011100 <
#66
0,
#71
b11001001011000010000000010011100 &
b0110 F
1,
b01100010000110010100001110011000100010011110100101110000110100101001011100010000010000011110010011001001011000010000000010011100 -
b01100010000110010100001110011000 /
b10001001111010010111000011010010 0
b10010111000100000100000111100100 1
b11001001011000010000000010011100 2
b10001 4
b10101000001100000100011000010011 5
b01111111110010011111100011010001 7
b11110001101000100000000000000000 9
b00000000000000001111111110010011 :
b10111011000001000000000000101111 ;
b10111011000001000000000000101111 ?
#76
0,
#81
b10111011000001000000000000101111 %
b0111 F
1,
b01100010000110010100001110011000100010011110100101110000110100101011101100000100000000000010111111001001011000010000000010011100 -
b11001001011000010000000010011100 /
b01100010000110010100001110011000 0
b10001001111010010111000011010010 1
b10111011000001000000000000101111 2
b10110 4
b11111101010001101001010100000001 5
b01010000010010010100100101101111 7
b01011011110000000000000000000000 9
b00000000000101000001001001010010 :
b00010110110110000001001010000001 ;
b00010110110110000001001010000001 >
#86
0,
#91
b00010110110110000001001010000001 $
b1000 F
1,
b01100010000110010100001110011000000101101101100000010010100000011011101100000100000000000010111111001001011000010000000010011100 -
b10111011000001000000000000101111 /
b11001001011000010000000010011100 0
b01100010000110010100001110011000 1
b00010110110110000001001010000001 2
b00000000000000000000000000110101 3
b00111 4
b01101001100000001001100011011000 5
b10100110101110101101110011000010 7
b01011101011011100110000100000000 9
b00000000000000000000000001010011 :
b01110100010001100111001111010100 ;
b01110100010001100111001111010100 =
#96
0,
#101
b01110100010001100111001111010100 #
b1001 F
1,
b01110100010001100111001111010100000101101101100000010010100000011011101100000100000000000010111111001001011000010000000010011100 -
b00010110110110000001001010000001 /
b10111011000001000000000000101111 0
b11001001011000010000000010011100 1
b01110100010001100111001111010100 2
b00000000000000000000000000000000 3
b01100 4
b10001011010001001111011110101111 5
b11110011111001100000101011110110 7
b01100000101011110110000000000000 9
b00000000000000000000111100111110 :
b11010100111101011110001100010010 ;
b11010100111101011110001100010010 <
#106
0,
#111
b11010100111101011110001100010010 &
b1010 F
1,
b01110100010001100111001111010100000101101101100000010010100000011011101100000100000000000010111111010100111101011110001100010010 -
b01110100010001100111001111010100 /
b00010110110110000001001010000001 0
b10111011000001000000000000101111 1
b11010100111101011110001100010010 2
b10001 4
b11111111111111110101101110110001 5
b00010001010011111100111101110001 7
b10011110111000100000000000000000 9
b00000000000000000010001010011111 :
b01110011110110000000010110110001 ;
b01110011110110000000010110110001 ?
#116
0,
#121
b01110011110110000000010110110001 %
b1011 F
1,
b01110100010001100111001111010100000101101101100000010010100000010111001111011000000001011011000111010100111101011110001100010010 -
b11010100111101011110001100010010 /
b01110100010001100111001111010100 0
b00010110110110000001001010000001 1
b01110011110110000000010110110001 2
b10110 4
b10001001010111001101011110111110 5
b11110101000010110101110110010011 7
b01100100110000000000000000000000 9
b00000000001111010100001011010111 :
b11011000110101010100100010001000 ;
b11011000110101010100100010001000 >
#126
0,
#131
b11011000110101010100100010001000 $
b1100 F
1,
b01110100010001100111001111010100110110001101010101001000100010000111001111011000000001011011000111010100111101011110001100010010 -
b01110011110110000000010110110001 /
b11010100111101011110001100010010 0
b01110100010001100111001111010100 1
b11011000110101010100100010001000 2
b00000000000000000000000000110101 3
b00111 4
b01101011100100000001000100100010 5
b00110100110001110010100010111101 7
b01100011100101000101111010000000 9
b00000000000000000000000000011010 :
b00111100011010011010011100100010 ;
b00111100011010011010011100100010 =
#136
0,
#141
b00111100011010011010011100100010 #
b1101 F
1,
b00111100011010011010011100100010110110001101010101001000100010000111001111011000000001011011000111010100111101011110001100010010 -
b11011000110101010100100010001000 /
b01110011110110000000010110110001 0
b11010100111101011110001100010010 1
b00111100011010011010011100100010 2
b00000000000000000000000000000000 3
b01100 4
b11111101100110000111000110010011 5
b00101110010111110101010100110110 7
b11110101010100110110000000000000 9
b00000000000000000000001011100101 :
b00110001101111010000101000000111 ;
b00110001101111010000101000000111 <
#146
0,
#151
b00110001101111010000101000000111 &
b1110 F
1,
b00111100011010011010011100100010110110001101010101001000100010000111001111011000000001011011000100110001101111010000101000000111 -
b00111100011010011010011100100010 /
b11011000110101010100100010001000 0
b01110011110110000000010110110001 1
b00110001101111010000101000000111 2
b10001 4
b10100110011110010100001110001110 5
b00010010101110101000101111001001 7
b00010111100100100000000000000000 9
b00000000000000000010010101110101 :
b01001001010011110010111101111100 ;
b01001001010011110010111101111100 ?
#156
0,
#161
b01001001010011110010111101111100 %
b1111 F
b00000100 *
1,
b00111100011010011010011100100010110110001101010101001000100010000100100101001111001011110111110000110001101111010000101000000111 -
b00110001101111010000101000000111 /
b00111100011010011010011100100010 0
b11011000110101010100100010001000 1
b01001001010011110010111101111100 2
b10110 4
b01001001101101000000100000100001 5
b01010111101101101101101010101111 7
b10101011110000000000000000000000 9
b00000000000101011110110110110110 :
b11110101001001010001110100110010 ;
b11110101001001010001110100110010 >
#166
0,
#171
b11110101001001010001110100110010 $
b0000 F
1,
b00111100011010011010011100100010111101010010010100011101001100100100100101001111001011110111110000110001101111010000101000000111 -
b00000100 .
b01001001010011110010111101111100 /
b00110001101111010000101000000111 0
b00111100011010011010011100100010 1
b11110101001001010001110100110010 2
b00000000000000000000000000110101 3
b00101 4
b11110110000111100010010101100010 5
b01 6
b10101011111011101111101000110011 7
b01111101110111110100011001100000 9
b00000000000000000000000000010101 :
b01110011000001000110001110100111 ;
b01110011000001000110001110100111 =
#176
0,
#181
b01110011000001000110001110100111 #
b0001 F
1,
b01110011000001000110001110100111111101010010010100011101001100100100100101001111001011110111110000110001101111010000101000000111 -
b11110101001001010001110100110010 /
b01001001010011110010111101111100 0
b00110001101111010000101000000111 1
b01110011000001000110001110100111 2
b01001 4
b11000000010000001011001101000000 5
b11100111001000011111000010100010 7
b01000011111000010100010000000000 9
b00000000000000000000000111001110 :
b10110110111001011010100101110101 ;
b10110110111001011010100101110101 <
#186
0,
#191
b10110110111001011010100101110101 &
b0010 F
1,
b01110011000001000110001110100111111101010010010100011101001100100100100101001111001011110111110010110110111001011010100101110101 -
b01110011000001000110001110100111 /
b11110101001001010001110100110010 0
b01001001010011110010111101111100 1
b10110110111001011010100101110101 2
b00000000000000000000000000000000 3
b01110 4
b00100110010111100101101001010001 5
b00100101110100101111010110000010 7
b10111101011000001000000000000000 9
b00000000000000000000100101110100 :
b01110100010001100011001011101001 ;
b01110100010001100011001011101001 ?
#196
0,
#201
b01110100010001100011001011101001 %
b0011 F
1,
b01110011000001000110001110100111111101010010010100011101001100100111010001000110001100101110100110110110111001011010100101110101 -
b10110110111001011010100101110101 /
b01110011000001000110001110100111 0
b11110101001001010001110100110010 1
b01110100010001100011001011101001 2
b10100 4
b11101001101101101100011110101010 5
b11010011110000011000111111001101 7
b11111100110100000000000000000000 9
b00000000000011010011110000011000 :
b01110001001000110110111100000001 ;
b01110001001000110110111100000001 >
#206
0,
#211
b01110001001000110110111100000001 $
b0100 F
1,
b01110011000001000110001110100111011100010010001101101111000000010111010001000110001100101110100110110110111001011010100101110101 -
b01110100010001100011001011101001 /
b10110110111001011010100101110101 0
b01110011000001000110001110100111 1
b01110001001000110110111100000001 2
b00101 4
b11010110001011110001000001011101 5
b10111001010101101010111110001101 7
b00101010110101011111000110100000 9
b00000000000000000000000000010111 :
b10011011111110010110000010111000 ;
b10011011111110010110000010111000 =
#216
0,
#221
b10011011111110010110000010111000 #
b0101 F
1,
b10011011111110010110000010111000011100010010001101101111000000010111010001000110001100101110100110110110111001011010100101110101 -
b01110001001000110110111100000001 /
b01110100010001100011001011101001 0
b10110110111001011010100101110101 1
b10011011111110010110000010111000 2
b01001 4
b00000010010001000001010001010011 5
b11001010100010110010101101110000 7
b00010110010101101110000000000000 9
b00000000000000000000000110010101 :
b10110010010100000100001001001101 ;
b10110010010100000100001001001101 <
#226
0,
#231
b10110010010100000100001001001101 &
b0110 F
1,
b10011011111110010110000010111000011100010010001101101111000000010111010001000110001100101110100110110010010100000100001001001101 -
b10011011111110010110000010111000 /
b01110001001000110110111100000001 0
b01110100010001100011001011101001 1
b10110010010100000100001001001101 2
b01110 4
b11011000101000011110011010000001 5
b00000111110000000101110000100011 7
b00010111000010001100000000000000 9
b00000000000000000000000111110000 :
b11001001010110010000010000111101 ;
b11001001010110010000010000111101 ?
#236
0,
#241
b11001001010110010000010000111101 %
b0111 F
1,
b10011011111110010110000010111000011100010010001101101111000000011100100101011001000001000011110110110010010100000100001001001101 -
b10110010010100000100001001001101 /
b10011011111110010110000010111000 0
b01110001001000110110111100000001 1
b11001001010110010000010000111101 2
b10100 4
b11100111110100111111101111001000 5
b00000010010100000110110101000110 7
b11010100011000000000000000000000 9
b00000000000000000010010100000110 :
b10011101101110010010100101000011 ;
b10011101101110010010100101000011 >
#246
0,
#251
b10011101101110010010100101000011 $
b1000 F
1,
b10011011111110010110000010111000100111011011100100101001010000111100100101011001000001000011110110110010010100000100001001001101 -
b11001001010110010000010000111101 /
b10110010010100000100001001001101 0
b10011011111110010110000010111000 1
b10011101101110010010100101000011 2
b00000000000000000000000000110101 3
b00101 4
b00100001111000011100110111100110 5
b10010110111101000011001101000100 7
b11011110100001100110100010000000 9
b00000000000000000000000000010010 :
b01111100001111111001000111010101 ;
b01111100001111111001000111010101 =
#256
0,
#261
b01111100001111111001000111010101 #
b1001 F
1,
b01111100001111111001000111010101100111011011100100101001010000111100100101011001000001000011110110110010010100000100001001001101 -
b10011101101110010010100101000011 /
b11001001010110010000010000111101 0
b10110010010100000100001001001101 1
b01111100001111111001000111010101 2
b01001 4
b11000011001101110000011111010110 5
b11010010010000000111001110101111 7
b10000000111001110101111000000000 9
b00000000000000000000000110100100 :
b11111101001001101111000101111001 ;
b11111101001001101111000101111001 <
#266
0,
#271
b11111101001001101111000101111001 &
b1010 F
1,
b01111100001111111001000111010101100111011011100100101001010000111100100101011001000001000011110111111101001001101111000101111001 -
b01111100001111111001000111010101 /
b10011101101110010010100101000011 0
b11001001010110010000010000111101 1
b11111101001001101111000101111001 2
b00000000000000000000000000000000 3
b01110 4
b11110100110101010000110110000111 5
b10111011010101001100001110011001 7
b00110000111001100100000000000000 9
b00000000000000000010111011010101 :
b00101110000011010110000001001110 ;
b00101110000011010110000001001110 ?
#276
0,
#281
b00101110000011010110000001001110 %
b1011 F
1,
b01111100001111111001000111010101100111011011100100101001010000110010111000001101011000000100111011111101001001101111000101111001 -
b11111101001001101111000101111001 /
b01111100001111111001000111010101 0
b10011101101110010010100101000011 1
b00101110000011010110000001001110 2
b10100 4
b01000101010110100001010011101101 5
b10010000001000001001111010011100 7
b11101001110000000000000000000000 9
b00000000000010010000001000001001 :
b00010111110101100110001001010111 ;
b00010111110101100110001001010111 >
#286
0,
#291
b00010111110101100110001001010111 $
b1100 F
1,
b01111100001111111001000111010101000101111101011001100010010101110010111000001101011000000100111011111101001001101111000101111001 -
b00101110000011010110000001001110 /
b11111101001001101111000101111001 0
b01111100001111111001000111010101 1
b00010111110101100110001001010111 2
b00101 4
b10101001111000111110100100000101 5
b00111101001100101101101100110001 7
b10100110010110110110011000100000 9
b00000000000000000000000000000111 :
b10111110001100011100100001111110 ;
b10111110001100011100100001111110 =
#296
0,
#301
b10111110001100011100100001111110 #
b1101 F
1,
b10111110001100011100100001111110000101111101011001100010010101110010111000001101011000000100111011111101001001101111000101111001 -
b00010111110101100110001001010111 /
b00101110000011010110000001001110 0
b11111101001001101111000101111001 1
b10111110001100011100100001111110 2
b01001 4
b11111100111011111010001111111000 5
b00111001111010011101011111010000 7
b11010011101011111010000000000000 9
b00000000000000000000000001110011 :
b10010001111000010110100011110001 ;
b10010001111000010110100011110001 <
#306
0,
#311
b10010001111000010110100011110001 &
b1110 F
1,
b10111110001100011100100001111110000101111101011001100010010101110010111000001101011000000100111010010001111000010110100011110001 -
b10111110001100011100100001111110 /
b00010111110101100110001001010111 0
b00101110000011010110000001001110 1
b10010001111000010110100011110001 2
b01110 4
b01100111011011110000001011011001 5
b01001111010111100100101110100000 7
b10010010111010000000000000000000 9
b00000000000000000001001111010111 :
b00100100110010010111110011001000 ;
b00100100110010010111110011001000 ?
#316
0,
#321
b00100100110010010111110011001000 %
b1111 F
b00001000 *
1,
b10111110001100011100100001111110000101111101011001100010010101110010010011001001011111001100100010010001111000010110100011110001 -
b10010001111000010110100011110001 /
b10111110001100011100100001111110 0
b00010111110101100110001001010111 1
b00100100110010010111110011001000 2
b10100 4
b10001101001010100100110010001010 5
b11001010110000100001011110101010 7
b01111010101000000000000000000000 9
b00000000000011001010110000100001 :
b10011111011101100010100011101001 ;
b10011111011101100010100011101001 >
#326
0,
#331
b10011111011101100010100011101001 $
b0000 F
1,
b10111110001100011100100001111110100111110111011000101000111010010010010011001001011111001100100010010001111000010110100011110001 -
b00001000 .
b00100100110010010111110011001000 /
b10010001111000010110100011110001 0
b10111110001100011100100001111110 1
b10011111011101100010100011101001 2
b00000000000000000000000000110101 3
b00100 4
b11111111111110100011100101000010 5
b10 6
b11101000100010100011111011000101 7
b10001000101000111110110001010000 9
b00000000000000000000000000001110 :
b00101000000110100001010101000111 ;
b00101000000110100001010101000111 =
#336
0,
#341
b00101000000110100001010101000111 #
b0001 F
1,
b00101000000110100001010101000111100111110111011000101000111010010010010011001001011111001100100010010001111000010110100011110001 -
b10011111011101100010100011101001 /
b00100100110010010111110011001000 0
b10010001111000010110100011110001 1
b00101000000110100001010101000111 2
b01011 4
b10000111011100011111011010000001 5
b10101100111110001010000100001101 7
b11000101000010000110100000000000 9
b00000000000000000000010101100111 :
b11101101001000101000001010101110 ;
b11101101001000101000001010101110 <
#346
0,
#351
b11101101001000101000001010101110 &
b0010 F
1,
b00101000000110100001010101000111100111110111011000101000111010010010010011001001011111001100100011101101001000101000001010101110 -
b00101000000110100001010101000111 /
b10011111011101100010100011101001 0
b00100100110010010111110011001000 1
b11101101001000101000001010101110 2
b10000 4
b01101101100111010110000100100010 5
b11101100101101011001110100011111 7
b10011101000111110000000000000000 9
b00000000000000001110110010110101 :
b10001010010000100110111101100011 ;
b10001010010000100110111101100011 ?
#356
0,
#361
b10001010010000100110111101100011 %
b0011 F
1,
b00101000000110100001010101000111100111110111011000101000111010011000101001000010011011110110001111101101001000101000001010101110 -
b11101101001000101000001010101110 /
b00101000000110100001010101000111 0
b10011111011101100010100011101001 1
b10001010010000100110111101100011 2
b10111 4
b11111101111001010011100000001100 5
b11101100110101100101100110110100 7
b11011010000000000000000000000000 9
b00000000011101100110101100101100 :
b01100100101110001101101010001111 ;
b01100100101110001101101010001111 >
#366
0,
#371
b01100100101110001101101010001111 $
b0100 F
1,
b00101000000110100001010101000111011001001011100011011010100011111000101001000010011011110110001111101101001000101000001010101110 -
b10001010010000100110111101100011 /
b11101101001000101000001010101110 0
b00101000000110100001010101000111 1
b01100100101110001101101010001111 2
b00000000000000000000000000000000 3
b00100 4
b10100100101111101110101001000100 5
b11010000101100010011011011001101 7
b00001011000100110110110011010000 9
b00000000000000000000000000001101 :
b01101111110011000100011101101100 ;
b01101111110011000100011101101100 =
#376
0,
#381
b01101111110011000100011101101100 #
b0101 F
1,
b01101111110011000100011101101100011001001011100011011010100011111000101001000010011011110110001111101101001000101000001010101110 -
b01100100101110001101101010001111 /
b10001010010000100110111101100011 0
b11101101001000101000001010101110 1
b01101111110011000100011101101100 2
b01011 4
b01001011110111101100111110101001 5
b10111010001110000100010011010111 7
b11000010001001101011100000000000 9
b00000000000000000000010111010001 :
b00110001111100110000010100111101 ;
b00110001111100110000010100111101 <
#386
0,
#391
b00110001111100110000010100111101 &
b0110 F
1,
b01101111110011000100011101101100011001001011100011011010100011111000101001000010011011110110001100110001111100110000010100111101 -
b01101111110011000100011101101100 /
b01100100101110001101101010001111 0
b10001010010000100110111101100011 1
b00110001111100110000010100111101 2
b10000 4
b11110110101110110100101101100000 5
b10111011100001010101001110100001 7
b01010011101000010000000000000000 9
b00000000000000001011101110000101 :
b10000101100101001100000011000010 ;
b10000101100101001100000011000010 ?
#396
0,
#401
b10000101100101001100000011000010 %
b0111 F
1,
b01101111110011000100011101101100011001001011100011011010100011111000010110010100110000001100001000110001111100110000010100111101 -
b00110001111100110000010100111101 /
b01101111110011000100011101101100 0
b01100100101110001101101010001111 1
b10000101100101001100000011000010 2
b10111 4
b10111110101111111011110001110000 5
b11111111001001000001100110010010 7
b11001001000000000000000000000000 9
b00000000011111111001001000001100 :
b01001111000101000101001011001110 ;
b01001111000101000101001011001110 >
#406
0,
#411
b01001111000101000101001011001110 $
b1000 F
1,
b01101111110011000100011101101100010011110001010001010010110011101000010110010100110000001100001000110001111100110000010100111101 -
b10000101100101001100000011000010 /
b00110001111100110000010100111101 0
b01101111110011000100011101101100 1
b01001111000101000101001011001110 2
b00100 4
b00101000100110110111111011000110 5
b10010011110110110101110101100011 7
b00111101101101011101011000110000 9
b00000000000000000000000000001001 :
b10001100110010100010100100000111 ;
b10001100110010100010100100000111 =
#416
0,
#421
b10001100110010100010100100000111 #
b1001 F
1,
b10001100110010100010100100000111010011110001010001010010110011101000010110010100110000001100001000110001111100110000010100111101 -
b01001111000101000101001011001110 /
b10000101100101001100000011000010 0
b00110001111100110000010100111101 1
b10001100110010100010100100000111 2
b01011 4
b11101010101000010010011111111010 5
b01100010110111101110100001000010 7
b11110111010000100001000000000000 9
b00000000000000000000001100010110 :
b10000100000011000011110000011101 ;
b10000100000011000011110000011101 <
#426
0,
#431
b10000100000011000011110000011101 &
b1010 F
1,
b10001100110010100010100100000111010011110001010001010010110011101000010110010100110000001100001010000100000011000011110000011101 -
b10001100110010100010100100000111 /
b01001111000101000101001011001110 0
b10000101100101001100000011000010 1
b10000100000011000011110000011101 2
b10000 4
b11010100111011110011000010000101 5
b10100010010101100011100100011011 7
b00111001000110110000000000000000 9
b00000000000000001010001001010110 :
b10111101001001111101111001110011 ;
b10111101001001111101111001110011 ?
#436
0,
#441
b10111101001001111101111001110011 %
b1011 F
1,
b10001100110010100010100100000111010011110001010001010010110011101011110100100111110111100111001110000100000011000011110000011101 -
b10000100000011000011110000011101 /
b10001100110010100010100100000111 0
b01001111000101000101001011001110 1
b10111101001001111101111001110011 2
b10111 4
b00000100100010000001110100000101 5
b00001001011111100011101100111100 7
b10011110000000000000000000000000 9
b00000000000001001011111100011101 :
b01011011001011001001110110010000 ;
b01011011001011001001110110010000 >
#446
0,
#451
b01011011001011001001110110010000 $
b1100 F
1,
b10001100110010100010100100000111010110110010110010011101100100001011110100100111110111100111001110000100000011000011110000011101 -
b10111101001001111101111001110011 /
b10000100000011000011110000011101 0
b10001100110010100010100100000111 1
b01011011001011001001110110010000 2
b00100 4
b11011001110101001101000000111001 5
b11001000101001100111100100111110 7
b10001010011001111001001111100000 9
b00000000000000000000000000001100 :
b11100101100101000011000101111100 ;
b11100101100101000011000101111100 =
#456
0,
#461
b11100101100101000011000101111100 #
b1101 F
1,
b11100101100101000011000101111100010110110010110010011101100100001011110100100111110111100111001110000100000011000011110000011101 -
b01011011001011001001110110010000 /
b10111101001001111101111001110011 0
b10000100000011000011110000011101 1
b11100101100101000011000101111100 2
b01011 4
b11100110110110111001100111100101 5
b01101110100001110100100010100001 7
b00111010010001010000100000000000 9
b00000000000000000000001101110100 :
b00011111110110010011110011110000 ;
b00011111110110010011110011110000 <
#466
0,
#471
b00011111110110010011110011110000 &
b1110 F
1,
b11100101100101000011000101111100010110110010110010011101100100001011110100100111110111100111001100011111110110010011110011110000 -
b11100101100101000011000101111100 /
b01011011001011001001110110010000 0
b10111101001001111101111001110011 1
b00011111110110010011110011110000 2
b10000 4
b00011111101000100111110011111000 5
b01111110001010111110101110000111 7
b11101011100001110000000000000000 9
b00000000000000000111111000101011 :
b00001011011000001011101100011011 ;
b00001011011000001011101100011011 ?
#476
0,
#481
b00001011011000001011101100011011 %
b1111 F
b00010000 *
1,
b11100101100101000011000101111100010110110010110010011101100100000000101101100000101110110001101100011111110110010011110011110000 -
b00011111110110010011110011110000 /
b11100101100101000011000101111100 0
b01011011001011001001110110010000 1
b00001011011000001011101100011011 2
b10111 4
b11000100101011000101011001100101 5
b00010001000001101010101010001100 7
b01000110000000000000000000000000 9
b00000000000010001000001101010101 :
b01010001011010010011111001110000 ;
b01010001011010010011111001110000 >
#486
0,
#491
b01010001011010010011111001110000 $
b0000 F
1,
b11100101100101000011000101111100010100010110100100111110011100000000101101100000101110110001101100011111110110010011110011110000 -
b00010000 .
b00001011011000001011101100011011 /
b00011111110110010011110011110000 0
b11100101100101000011000101111100 1
b01010001011010010011111001110000 2
b00000000000000000000000000110101 3
b00110 4
b11110100001010010010001001000100 5
b11 6
b11010011110011001001100001011001 7
b11110011001001100001011001000000 9
b00000000000000000000000000110100 :
b01000100100011110101010011100100 ;
b01000100100011110101010011100100 =
#496
0,
#501
b01000100100011110101010011100100 #
b0001 F
1,
b01000100100011110101010011100100010100010110100100111110011100000000101101100000101110110001101100011111110110010011110011110000 -
b01010001011010010011111001110000 /
b00001011011000001011101100011011 0
b00011111110110010011110011110000 1
b01000100100011110101010011100100 2
b00000000000000000000000000000000 3
b01010 4
b01000011001010101111111110010111 5
b00001000111110101010011100011011 7
b11101010100111000110110000000000 9
b00000000000000000000000000100011 :
b00101111001010111100000100000111 ;
b00101111001010111100000100000111 <
#506
0,
#511
b00101111001010111100000100000111 &
b0010 F
1,
b01000100100011110101010011100100010100010110100100111110011100000000101101100000101110110001101100101111001010111100000100000111 -
b01000100100011110101010011100100 /
b01010001011010010011111001110000 0
b00001011011000001011101100011011 1
b00101111001010111100000100000111 2
b00000000000000000000000000110101 3
b01111 4
b10101011100101000010001110100111 5
b10100010001001010111010001100010 7
b10111010001100010000000000000000 9
b00000000000000000101000100010010 :
b11101001010111010001001000011001 ;
b11101001010111010001001000011001 ?
#516
0,
