ca/lab0/chisel-design-for-student/test_run_dir/md5_should_do_right_thing/md5.vcd
$date
2022-09-22T09:03+0000
$end
$version
0.2
$end
$comment

$end
$timescale 1ns  $end
$scope module md5 $end
 $var wire 32 ! A_K_50 $end
 $var wire 32 " A_K_52 $end
 $var wire 32 # A_K_51 $end
 $var wire 32 $ A_K_54 $end
 $var wire 32 % A_K_53 $end
 $var wire 32 & A_K_56 $end
 $var wire 32 ' A_K_55 $end
 $var wire 32 ( A_K_58 $end
 $var wire 32 ) A_K_57 $end
 $var wire 32 * A_K_59 $end
 $var wire 32 + AA $end
 $var wire 32 , A_K_61 $end
 $var wire 32 - A_K_60 $end
 $var wire 32 . A_K_63 $end
 $var wire 32 / A_K_62 $end
 $var wire 32 0 BB $end
 $var wire 32 1 A $end
 $var wire 32 2 B $end
 $var wire 32 3 C $end
 $var wire 32 4 D $end
 $var wire 32 5 A_K_30 $end
 $var wire 32 6 A_K_39 $end
 $var wire 32 8 A_K_32 $end
 $var wire 32 9 A_K_31 $end
 $var wire 32 : A_K_34 $end
 $var wire 32 ; A_K_33 $end
 $var wire 32 < A_K_36 $end
 $var wire 32 = A_K_35 $end
 $var wire 32 > A_K_38 $end
 $var wire 32 ? A_K_37 $end
 $var wire 32 @ CC $end
 $var wire 32 A A_K_41 $end
 $var wire 32 B A_K_40 $end
 $var wire 1 D r $end
 $var wire 32 F A_K_43 $end
 $var wire 32 G A_K_42 $end
 $var wire 32 H A_K_45 $end
 $var wire 32 I A_K_44 $end
 $var wire 32 J A_K_47 $end
 $var wire 32 K A_K_46 $end
 $var wire 32 L A_K_49 $end
 $var wire 32 M A_K_48 $end
 $var wire 32 N DD $end
 $var wire 32 O next_D $end
 $var wire 32 P next_A $end
 $var wire 32 Q next_B $end
 $var wire 32 R next_C $end
 $var wire 1 S io_out_valid $end
 $var wire 1 T io_in_valid $end
 $var wire 8 U next_state $end
 $var wire 1 V out_r $end
 $var wire 1 W clock $end
 $var wire 128 X io_out $end
 $var wire 8 Y state $end
 $var wire 1 Z io_ready $end
 $var wire 32 [ cya $end
 $var wire 32 \ cyc $end
 $var wire 32 ] cyb $end
 $var wire 32 ^ cyd $end
 $var wire 1 _ printf_1 $end
 $var wire 1 ` printf_2 $end
 $var wire 1 e printf $end
 $var wire 256 k msg_hi $end
 $var wire 4 l phase $end
 $var wire 128 m io_in $end
 $var wire 1 n reset $end
 $var wire 512 o msg $end
 $var wire 32 p A_K_2 $end
 $var wire 32 q A_K_3 $end
 $var wire 32 r A_K_4 $end
 $var wire 32 s A_K_5 $end
 $var wire 256 t msg_lo $end
 $var wire 32 u A_K_6 $end
 $var wire 32 v A_K_7 $end
 $var wire 32 w A_K_8 $end
 $var wire 32 x A_K_9 $end
 $var wire 32 y A_K_18 $end
 $var wire 32 z A_K_17 $end
 $var wire 32 { A_K_19 $end
 $var wire 32 | A_K_10 $end
 $var wire 32 } A_K_12 $end
 $var wire 32 ~ A_K_11 $end
 $var wire 32 "! A_K_14 $end
 $var wire 32 "" A_K_13 $end
 $var wire 32 "# A_K_16 $end
 $var wire 32 "$ A_K_15 $end
 $var wire 32 "% A_K_29 $end
 $var wire 32 "& A_K_28 $end
 $var wire 32 "' A_K_21 $end
 $var wire 32 "( A_K_20 $end
 $var wire 32 ") A_K_23 $end
 $var wire 32 "* A_K_22 $end
 $var wire 32 "+ A_K_25 $end
 $var wire 32 ", A_K_24 $end
 $var wire 32 "- A_K_27 $end
 $var wire 32 ". A_K_26 $end
 $var wire 32 "/ A_A $end
 $var wire 32 "0 A_B $end
 $var wire 32 "1 A_C $end
 $var wire 32 "2 A_D $end
 $var wire 32 "3 A_K_0 $end
 $var wire 32 "4 A_K_1 $end
  $scope module r $end
   $var wire 32 7 left_move $end
   $var wire 32 C right_move $end
   $var wire 32 E io_next_a $end
   $var wire 32 a io_c $end
   $var wire 32 b io_d $end
   $var wire 32 c io_a $end
   $var wire 32 d io_b $end
   $var wire 32 f io_m $end
   $var wire 5 g io_s $end
   $var wire 32 h io_t $end
   $var wire 2 i io_r $end
   $var wire 32 j result $end
  $upscope $end
$upscope $end
$enddefinitions $end
$dumpvars
b00000000000000000000000000000000 "/
b00000000000000000000000000000000 +
b00000000000000000000000000000000 ".
b00000000000000000000000000000000 *
b00000000000000000000000000000000 "-
b00000000000000000000000000000000 -
b00000000000000000000000000000000 ",
b00000000000000000000000000000000 ,
b00000000000000000000000000000000 "3
b00000000000000000000000000000000 '
b00000000000000000000000000000000 "2
b00000000000000000000000000000000 &
b00000000000000000000000000000000 "1
b00000000000000000000000000000000 )
b00000000000000000000000000000000 "0
b00000000000000000000000000000000 (
b00000000000000000000000000000000 "'
b00000000000000000000000000000000 #
b00000000000000000000000000000000 "&
b00000000000000000000000000000000 "
b00000000000000000000000000000000 "%
b00000000000000000000000000000000 %
b00000000000000000000000000000000 "$
b00000000000000000000000000000000 $
b00000000000000000000000000000000 "+
b00000000000000000000000000000000 "*
b00000000000000000000000000000000 ")
b00000000000000000000000000000000 !
b00000000000000000000000000000000 "(
b00000000000000000000000000000000 ;
b00000000000000000000000000000000 :
b00000000000000000000000000000000 =
b00000000000000000000000000000000 <
0D
b00000000000000000000000000000000 7
b00000000000000000000000000000000 6
b00000000000000000000000000000000 9
b00000000000000000000000000000000 8
b00000000000000000000000000000000 3
b00000000000000000000000000000000 2
b00000000000000000000000000000000 5
b00000000000000000000000000000000 "4
b00000000000000000000000000000000 4
b00000000000000000000000000000000 /
b00000000000000000000000000000000 .
b00000000000000000000000000000000 1
b00000000000000000000000000000000 0
0S
0T
0V
0W
0Z
0_
0`
0e
b00000000 Y
b00000000 U
0n
b00000000000000000000000000000000000000000000000000000000000000000000000000000000000000000000000000000000000000000000000000000000 m
b00000000000000000000000000000000000000000000000000000000000000000000000000000000000000000000000000000000000000000000000000000000 X
b00000000000000000000000000000000 "#
b00000000000000000000000000000000 ""
b00000000000000000000000000000000 "!
b00000000000000000000000000000000 ~
b00000000000000000000000000000000 j
b00000000000000000000000000000000 f
b00000000000000000000000000000000 h
b00000000000000000000000000000000 c
b0000000000000000000000000000000000000000000000000000000000000000000000000000000000000000000000000000000000000000000000000000000000000000000000000000000000000000000000000000000000000000000000000000000000000000000000000000000000000000000000000000000000000000 k
b00000000000000000000000000000000 b
b00000000000000000000000000000000 d
b00000000000000000000000000000000 ^
b00000000000000000000000000000000 a
b00 i
b00000000000000000000000000000000 {
b00000000000000000000000000000000 z
b0000000000000000000000000000000000000000000000000000000000000000000000000000000000000000000000000000000000000000000000000000000000000000000000000000000000000000000000000000000000000000000000000000000000000000000000000000000000000000000000000000000000000000 t
b00000000000000000000000000000000 }
b00000000000000000000000000000000 |
b00000 g
b00000000000000000000000000000000 w
b00000000000000000000000000000000 v
b00000000000000000000000000000000 y
b00000000000000000000000000000000 x
b00000000000000000000000000000000 s
b00000000000000000000000000000000 r
b00000000000000000000000000000000 u
b00000000000000000000000000000000 q
b00000000000000000000000000000000 p
b00000000000000000000000000000000 K
b00000000000000000000000000000000 J
b00000000000000000000000000000000 M
b00000000000000000000000000000000 L
b00000000000000000000000000000000 G
b00000000000000000000000000000000 F
b00000000000000000000000000000000 I
b00000000000000000000000000000000 H
b0000 l
b00000000000000000000000000000000 C
b00000000000000000000000000000000 B
b00000000000000000000000000000000 E
b00000000000000000000000000000000 ?
b00000000000000000000000000000000 >
b00000000000000000000000000000000 A
b00000000000000000000000000000000 @
b00000000000000000000000000000000 [
b00000000000000000000000000000000 ]
b00000000000000000000000000000000 \
b00000000000000000000000000000000000000000000000000000000000000000000000000000000000000000000000000000000000000000000000000000000000000000000000000000000000000000000000000000000000000000000000000000000000000000000000000000000000000000000000000000000000000000000000000000000000000000000000000000000000000000000000000000000000000000000000000000000000000000000000000000000000000000000000000000000000000000000000000000000000000000000000000000000000000000000000000000000000000000000000000000000000000000000000000000000 o
b00000000000000000000000000000000 R
b00000000000000000000000000000000 O
b00000000000000000000000000000000 N
b00000000000000000000000000000000 Q
b00000000000000000000000000000000 P
$end
#0
b10101011100101000010001110100111 !
b01100101010110110101100111000011 "
b11111100100100111010000000111001 #
b11111111111011111111010001111101 $
b10001111000011001100110010010010 %
b01101111101010000111111001001111 &
b10000101100001000101110111010001 '
b10100011000000010100001100010100 (
b11111110001011001110011011100000 )
b01001110000010000001000110100001 *
b10111101001110101111001000110101 ,
b11110111010100110111111010000010 -
b11101011100001101101001110010001 .
b00101010110101111101001010111011 /
b01100111011011110000001011011001 5
b10111110101111111011110001110000 6
b11111111111110100011100101000010 8
b10001101001010100100110010001010 9
b01101101100111010110000100100010 :
b10000111011100011111011010000001 ;
b10100100101111101110101001000100 <
b11111101111001010011100000001100 =
b11110110101110110100101101100000 >
b01001011110111101100111110101001 ?
b10100110011110010100001110001110 "!
b11111101100110000111000110010011 ""
b11101010101000010010011111111010 A
b11110110000111100010010101100010 "#
b00101000100110110111111011000110 B
b01001001101101000000100000100001 "$
b11111100111011111010001111111000 "%
b10101001111000111110100100000101 "&
b00000010010001000001010001010011 "'
b00000100100010000001110100000101 F
b11010110001011110001000001011101 "(
b11010100111011110011000010000101 G
b11100111110100111111101111001000 ")
b11100110110110111001100111100101 H
b11011000101000011110011010000001 "*
b11011001110101001101000000111001 I
b11000011001101110000011111010110 "+
b11000100101011000101011001100101 J
b00100001111000011100110111100110 ",
b00011111101000100111110011111000 K
b01000101010110100001010011101101 "-
b01000011001010101111111110010111 L
b11110100110101010000110110000111 ".
b11110100001010010010001001000100 M
b01100111010001010010001100000001 "/
b11101111110011011010101110001001 "0
b10011000101110101101110011111110 "1
b00010000001100100101010001110110 "2
b11010111011010101010010001111000 "3
b11101000110001111011011101010110 "4
1n
b00100100001000000111000011011011 p
b11000001101111011100111011101110 q
b11110101011111000000111110101111 r
b01000111100001111100011000101010 s
b10101000001100000100011000010011 u
b11111101010001101001010100000001 v
b01101001100000001001100011011000 w
b10001011010001001111011110101111 x
b00100110010111100101101001010001 y
b11000000010000001011001101000000 z
b11101001101101101100011110101010 {
b11111111111111110101101110110001 |
b01101011100100000001000100100010 }
b10001001010111001101011110111110 ~
#1
b00010000001100100101010001110110 O
b01100111010001010010001100000001 P
b01100111010001010010001100000001 1
b11101111110011011010101110001001 Q
b11101111110011011010101110001001 2
b10011000101110101101110011111110 R
b10011000101110101101110011111110 3
b00010000001100100101010001110110 4
b00000001 U
1W
b01100111010001010010001100000001111011111100110110101011100010011001100010111010110111001111111000010000001100100101010001110110 X
b00000001 Y
1Z
b01100111010001010010001100000001 [
b10011000101110101101110011111110 \
b11101111110011011010101110001001 ]
b00010000001100100101010001110110 ^
#6
1T
b0000000000000000000000000000000000000000000000000000000000000000000000000000000000000000000000000000000000000000000000000011010100000000000000000000000000000000000000000000000000000000000000000000000000000000000000000000000000000000000000000000000000110101 t
b00000010 U
0W
b0000000000000000000000000000000000000000000000000000000000000000000000000000000000000000000000000000000000000000000000000011010100000000000000000000000000000000000000000000000000000000000000000000000000000000000000000000000000000000000000000000000000110101 k
b00000000000000000000000000000000000000000000000000000000000000000000000000000000000000000000000000000000000000000000000000110101 m
0n
#11
b10011000101110101101110011111110 @
b10011000101110101101110011111110 a
b00010000001100100101010001110110 b
b00000000000000000000000001101011 C
b01100111010001010010001100000001 c
b11101111110011011010101110001001 d
b10100101001000000000000111101011 E
b00000000000000000000000000110101 f
b00111 g
b11010111011010101010010001111000 h
b11010111011010101010010010101100 j
b01100111010001010010001100000001 +
b00010000001100100101010001110110 N
b00000000000000000000000000000000000000000000000000000000000000000000000000000000000000000000000000000000000000000000000000110101000000000000000000000000000000000000000000000000000000000000000000000000000000000000000000000000000000000000000000000000001101010000000000000000000000000000000000000000000000000000000000000000000000000000000000000000000000000000000000000000000000000011010100000000000000000000000000000000000000000000000000000000000000000000000000000000000000000000000000000000000000000000000000110101 o
b11101111110011011010101110001001 0
b10100101001000000000000111101011 P
b10110101010100100101011000000000 7
1W
b00000010 Y
0Z
#16
0W
#21
b11101111110011011010101110001001 a
b10011000101110101101110011111110 b
b00000000000000000000101101101001 C
b00010000001100100101010001110110 c
b10100101001000000000000111101011 d
b11110011101101101001101111101011 E
b00000000000000000000000000000000 f
b01100 g
b11101000110001111011011101010110 h
b10110110100101001110100101101001 j
b0001 l
b11110011101101101001101111101011 O
b10100101001000000000000111101011 1
b01001110100101101001000000000000 7
1W
b10100101001000000000000111101011111011111100110110101011100010011001100010111010110111001111111000010000001100100101010001110110 X
b00010000001100100101010001110110 [
b11101111110011011010101110001001 \
b10100101001000000000000111101011 ]
b10011000101110101101110011111110 ^
#26
0W
#31
b10100101001000000000000111101011 a
b11101111110011011010101110001001 b
b00000000000000001101010010001000 C
b10011000101110101101110011111110 c
b11110011101101101001101111101011 d
b11010011001111101101111111101011 E
b10001 g
b00100100001000000111000011011011 h
b01101010010001000110111111000100 j
b0010 l
b11010011001111101101111111101011 R
b11110011101101101001101111101011 4
b11011111100010000000000000000000 7
1W
b10100101001000000000000111101011111011111100110110101011100010011001100010111010110111001111111011110011101101101001101111101011 X
b10011000101110101101110011111110 [
b10100101001000000000000111101011 \
b11110011101101101001101111101011 ]
b11101111110011011010101110001001 ^
#36
0W
#41
b11110011101101101001101111101011 a
b10100101001000000000000111101011 b
b00000000001010100011000010000101 C
b11101111110011011010101110001001 c
b11010011001111101101111111101011 d
b01101011101111101111111111101111 E
b10110 g
b11000001101111011100111011101110 h
b10101000110000100001011001100010 j
b0011 l
b01101011101111101111111111101111 Q
b11010011001111101101111111101011 3
b10011000100000000000000000000000 7
1W
b10100101001000000000000111101011111011111100110110101011100010011101001100111110110111111110101111110011101101101001101111101011 X
b11101111110011011010101110001001 [
b11110011101101101001101111101011 \
b11010011001111101101111111101011 ]
b10100101001000000000000111101011 ^
#46
0W
#51
b11010011001111101101111111101011 a
b11110011101101101001101111101011 b
b00000000000000000000000000110110 C
b10100101001000000000000111101011 c
b01101011101111101111111111101111 d
b01011001001101111101110011111111 E
b00000000000000000000000000110101 f
b00111 g
b11110101011111000000111110101111 h
b01101101110110101111000110111010 j
b0100 l
b01011001001101111101110011111111 P
b01101011101111101111111111101111 2
b11101101011110001101110100000000 7
1W
b10100101001000000000000111101011011010111011111011111111111011111101001100111110110111111110101111110011101101101001101111101011 X
b10100101001000000000000111101011 [
b11010011001111101101111111101011 \
b01101011101111101111111111101111 ]
b11110011101101101001101111101011 ^
#56
0W
#61
b01101011101111101111111111101111 a
b11010011001111101101111111101011 b
b00000000000000000000000001100111 C
b11110011101101101001101111101011 c
b01011001001101111101110011111111 d
b00101101010110000001110011111111 E
b00000000000000000000000000000000 f
b01100 g
b01000111100001111100011000101010 h
b00000110011111010100001000000100 j
b0101 l
b00101101010110000001110011111111 O
b01011001001101111101110011111111 1
b11010100001000000100000000000000 7
1W
b01011001001101111101110011111111011010111011111011111111111011111101001100111110110111111110101111110011101101101001101111101011 X
b11110011101101101001101111101011 [
b01101011101111101111111111101111 \
b01011001001101111101110011111111 ]
b11010011001111101101111111101011 ^
#66
0W
#71
b01011001001101111101110011111111 a
b01101011101111101111111111101111 b
b00000000000000011000111001001100 C
b11010011001111101101111111101011 c
b00101101010110000001110011111111 d
b01111001010100111001111011111111 E
b10001 g
b10101000001100000100011000010011 h
b11000111001001100010010111111101 j
b0110 l
b01111001010100111001111011111111 R
b00101101010110000001110011111111 4
b01001011111110100000000000000000 7
1W
b01011001001101111101110011111111011010111011111011111111111011111101001100111110110111111110101100101101010110000001110011111111 X
b11010011001111101101111111101011 [
b01011001001101111101110011111111 \
b00101101010110000001110011111111 ]
b01101011101111101111111111101111 ^
#76
0W
#81
b00101101010110000001110011111111 a
b01011001001101111101110011111111 b
b00000000001001001001111001111100 C
b01101011101111101111111111101111 c
b01111001010100111001111011111111 d
b11110101001101111001111011111111 E
b10110 g
b11111101010001101001010100000001 h
b10010010011110011111000111101111 j
b0111 l
b11110101001101111001111011111111 Q
b01111001010100111001111011111111 3
b01111011110000000000000000000000 7
1W
b01011001001101111101110011111111011010111011111011111111111011110111100101010011100111101111111100101101010110000001110011111111 X
b01101011101111101111111111101111 [
b00101101010110000001110011111111 \
b01111001010100111001111011111111 ]
b01011001001101111101110011111111 ^
#86
0W
#91
b01111001010100111001111011111111 a
b00101101010110000001110011111111 b
b00000000000000000000000000011110 C
b01011001001101111101110011111111 c
b11110101001101111001111011111111 d
b11111111010000100010010001111111 E
b00000000000000000000000000110101 f
b00111 g
b01101001100000001001100011011000 h
b00111100000101000001010100001011 j
b1000 l
b11111111010000100010010001111111 P
b11110101001101111001111011111111 2
b00001010000010101000010110000000 7
1W
b01011001001101111101110011111111111101010011011110011110111111110111100101010011100111101111111100101101010110000001110011111111 X
b01011001001101111101110011111111 [
b01111001010100111001111011111111 \
b11110101001101111001111011111111 ]
b00101101010110000001110011111111 ^
#96
0W
#101
b11110101001101111001111011111111 a
b01111001010100111001111011111111 b
b00000000000000000000101011011011 C
b00101101010110000001110011111111 c
b11111111010000100010010001111111 d
b00001010011111001111111011111111 E
b00000000000000000000000000000000 f
b01100 g
b10001011010001001111011110101111 h
b10101101101100001011001110101101 j
b1001 l
b00001010011111001111111011111111 O
b11111111010000100010010001111111 1
b00001011001110101101000000000000 7
1W
b11111111010000100010010001111111111101010011011110011110111111110111100101010011100111101111111100101101010110000001110011111111 X
b00101101010110000001110011111111 [
b11110101001101111001111011111111 \
b11111111010000100010010001111111 ]
b01111001010100111001111011111111 ^
#106
0W
#111
b11111111010000100010010001111111 a
b11110101001101111001111011111111 b
b00000000000000001111000100101100 C
b01111001010100111001111011111111 c
b00001010011111001111111011111111 d
b01001000110110101111111111111111 E
b10001 g
b11111111111111110101101110110001 h
b01111000100101100001111100101111 j
b1010 l
b01001000110110101111111111111111 R
b00001010011111001111111011111111 4
b00111110010111100000000000000000 7
1W
b11111111010000100010010001111111111101010011011110011110111111110111100101010011100111101111111100001010011111001111111011111111 X
b01111001010100111001111011111111 [
b11111111010000100010010001111111 \
b00001010011111001111111011111111 ]
b11110101001101111001111011111111 ^
#116
0W
#121
b00001010011111001111111011111111 a
b11111111010000100010010001111111 b
b00000000000011110111101101011101 C
b11110101001101111001111011111111 c
b01001000110110101111111111111111 d
b10110111110111111111111111111111 E
b10110 g
b10001001010111001101011110111110 h
b00111101111011010111010110111100 j
b1011 l
b10110111110111111111111111111111 Q
b01001000110110101111111111111111 3
b01101111000000000000000000000000 7
1W
b11111111010000100010010001111111111101010011011110011110111111110100100011011010111111111111111100001010011111001111111011111111 X
b11110101001101111001111011111111 [
b00001010011111001111111011111111 \
b01001000110110101111111111111111 ]
b11111111010000100010010001111111 ^
#126
0W
#131
b01001000110110101111111111111111 a
b00001010011111001111111011111111 b
b00000000000000000000000000111001 C
b11111111010000100010010001111111 c
b10110111110111111111111111111111 d
b10011110011110101110101001111111 E
b00000000000000000000000000110101 f
b00111 g
b01101011100100000001000100100010 h
b01110011110011010011010111010101 j
b1100 l
b10011110011110101110101001111111 P
b10110111110111111111111111111111 2
b11100110100110101110101010000000 7
1W
b11111111010000100010010001111111101101111101111111111111111111110100100011011010111111111111111100001010011111001111111011111111 X
b11111111010000100010010001111111 [
b01001000110110101111111111111111 \
b10110111110111111111111111111111 ]
b00001010011111001111111011111111 ^
#136
0W
#141
b10110111110111111111111111111111 a
b01001000110110101111111111111111 b
b00000000000000000000110111101111 C
b00001010011111001111111011111111 c
b10011110011110101110101001111111 d
b10100101100000111111111111111111 E
b00000000000000000000000000000000 f
b01100 g
b11111101100110000111000110010011 h
b11011110111100000111000010010001 j
b1101 l
b10100101100000111111111111111111 O
b10011110011110101110101001111111 1
b00000111000010010001000000000000 7
1W
b10011110011110101110101001111111101101111101111111111111111111110100100011011010111111111111111100001010011111001111111011111111 X
b00001010011111001111111011111111 [
b10110111110111111111111111111111 \
b10011110011110101110101001111111 ]
b01001000110110101111111111111111 ^
#146
0W
#151
b10011110011110101110101001111111 a
b10110111110111111111111111111111 b
b00000000000000010000101101100110 C
b01001000110110101111111111111111 c
b10100101100000111111111111111111 d
b00000001100110111111111111111111 E
b10001 g
b10100110011110010100001110001110 h
b10000101101100110010111000001100 j
b1110 l
b00000001100110111111111111111111 R
b10100101100000111111111111111111 4
b01011100000110000000000000000000 7
1W
b10011110011110101110101001111111101101111101111111111111111111110100100011011010111111111111111110100101100000111111111111111111 X
b01001000110110101111111111111111 [
b10011110011110101110101001111111 \
b10100101100000111111111111111111 ]
b10110111110111111111111111111111 ^
#156
0W
#161
b10100101100000111111111111111111 a
b10011110011110101110101001111111 b
b00000000001010000101111000000010 C
b10110111110111111111111111111111 c
b00000001100110111111111111111111 d
b00001001011110111111111111111111 E
b10110 g
b01001001101101000000100000100001 h
b10100001011110000000100000011111 j
b1111 l
b00001001011110111111111111111111 Q
b00000001100110111111111111111111 3
b00000100 U
b00000111110000000000000000000000 7
1W
b10011110011110101110101001111111101101111101111111111111111111110000000110011011111111111111111110100101100000111111111111111111 X
b10110111110111111111111111111111 [
b10100101100000111111111111111111 \
b00000001100110111111111111111111 ]
b10011110011110101110101001111111 ^
#166
0W
#171
b00000001100110111111111111111111 a
b10100101100000111111111111111111 b
b00000000000000000000000000010010 C
b10011110011110101110101001111111 c
b00001001011110111111111111111111 d
b11000000000111100000001010011111 E
b00000000000000000000000000110101 f
b00101 g
b11110110000111100010010101100010 h
b01 i
b10010101101101010001000000010101 j
b0000 l
b11000000000111100000001010011111 P
b00001001011110111111111111111111 2
b10110110101000100000001010100000 7
1W
b10011110011110101110101001111111000010010111101111111111111111110000000110011011111111111111111110100101100000111111111111111111 X
b00000100 Y
b10011110011110101110101001111111 [
b00000001100110111111111111111111 \
b00001001011110111111111111111111 ]
b10100101100000111111111111111111 ^
#176
0W
#181
b00001001011110111111111111111111 a
b00000001100110111111111111111111 b
b00000000000000000000000011011100 C
b10100101100000111111111111111111 c
b11000000000111100000001010011111 d
b00111101100010100010100011011111 E
b01001 g
b11000000010000001011001101000000 h
b01101110001111101011011000010011 j
b0001 l
b00111101100010100010100011011111 O
b11000000000111100000001010011111 1
b01111101011011000010011000000000 7
1W
b11000000000111100000001010011111000010010111101111111111111111110000000110011011111111111111111110100101100000111111111111111111 X
b10100101100000111111111111111111 [
b00001001011110111111111111111111 \
b11000000000111100000001010011111 ]
b00000001100110111111111111111111 ^
#186
0W
#191
b11000000000111100000001010011111 a
b00001001011110111111111111111111 b
b00000000000000000011110001000010 C
b00000001100110111111111111111111 c
b00111101100010100010100011011111 d
b01011110010101011111110011011111 E
b00000000000000000000000000000000 f
b01110 g
b00100110010111100101101001010001 h
b11110001000010001000001100101111 j
b0010 l
b01011110010101011111110011011111 R
b00111101100010100010100011011111 4
b00100000110010111100000000000000 7
1W
b11000000000111100000001010011111000010010111101111111111111111110000000110011011111111111111111100111101100010100010100011011111 X
b00000001100110111111111111111111 [
b11000000000111100000001010011111 \
b00111101100010100010100011011111 ]
b00001001011110111111111111111111 ^
#196
0W
#201
b00111101100010100010100011011111 a
b11000000000111100000001010011111 b
b00000000000001110000110001101111 C
b00001001011110111111111111111111 c
b01011110010101011111110011011111 d
b01100110110101111111110011111111 E
b10100 g
b11101001101101101100011110101010 h
b01110000110001101111000010001000 j
b0011 l
b01100110110101111111110011111111 Q
b01011110010101011111110011011111 3
b00001000100000000000000000000000 7
1W
b11000000000111100000001010011111000010010111101111111111111111110101111001010101111111001101111100111101100010100010100011011111 X
b00001001011110111111111111111111 [
b00111101100010100010100011011111 \
b01011110010101011111110011011111 ]
b11000000000111100000001010011111 ^
#206
0W
#211
b01011110010101011111110011011111 a
b00111101100010100010100011011111 b
b00000000000000000000000000011111 C
b11000000000111100000001010011111 c
b01100110110101111111110011111111 d
b00001011011110011111100001011111 E
b00101 g
b11010110001011110001000001011101 h
b11111101001001010000111111011011 j
b0100 l
b00001011011110011111100001011111 P
b01100110110101111111110011111111 2
b10100100101000011111101101100000 7
1W
b11000000000111100000001010011111011001101101011111111100111111110101111001010101111111001101111100111101100010100010100011011111 X
b11000000000111100000001010011111 [
b01011110010101011111110011011111 \
b01100110110101111111110011111111 ]
b00111101100010100010100011011111 ^
#216
0W
#221
b01100110110101111111110011111111 a
b01011110010101011111110011011111 b
b00000000000000000000000011010101 C
b00111101100010100010100011011111 c
b00001011011110011111100001011111 d
b01001111111001010101101011011111 E
b01001 g
b00000010010001000001010001010011 h
b01101010101000100011010110110001 j
b0101 l
b01001111111001010101101011011111 O
b00001011011110011111100001011111 1
b01000100011010110110001000000000 7
1W
b00001011011110011111100001011111011001101101011111111100111111110101111001010101111111001101111100111101100010100010100011011111 X
b00111101100010100010100011011111 [
b01100110110101111111110011111111 \
b00001011011110011111100001011111 ]
b01011110010101011111110011011111 ^
#226
0W
#231
b00001011011110011111100001011111 a
b01100110110101111111110011111111 b
b00000000000000000010000110111001 C
b01011110010101011111110011011111 c
b01001111111001010101101011011111 d
b10011110111101010011101111111111 E
b01110 g
b11011000101000011110011010000001 h
b10000110111001010011110000111111 j
b0110 l
b10011110111101010011101111111111 R
b01001111111001010101101011011111 4
b01001111000011111100000000000000 7
1W
b00001011011110011111100001011111011001101101011111111100111111110101111001010101111111001101111101001111111001010101101011011111 X
b01011110010101011111110011011111 [
b00001011011110011111100001011111 \
b01001111111001010101101011011111 ]
b01100110110101111111110011111111 ^
#236
0W
#241
b01001111111001010101101011011111 a
b00001011011110011111100001011111 b
b00000000000010011101101000010011 C
b01100110110101111111110011111111 c
b10011110111101010011101111111111 d
b11011001010111011111101111111111 E
b10100 g
b11100111110100111111101111001000 h
b10011101101000010011001110100110 j
b0111 l
b11011001010111011111101111111111 Q
b10011110111101010011101111111111 3
b00111010011000000000000000000000 7
1W
b00001011011110011111100001011111011001101101011111111100111111111001111011110101001110111111111101001111111001010101101011011111 X
b01100110110101111111110011111111 [
b01001111111001010101101011011111 \
b10011110111101010011101111111111 ]
b00001011011110011111100001011111 ^
#246
0W
#251
b10011110111101010011101111111111 a
b01001111111001010101101011011111 b
b00000000000000000000000000000000 C
b00001011011110011111100001011111 c
b11011001010111011111101111111111 d
b10101111100001100100101100011111 E
b00000000000000000000000000110101 f
b00101 g
b00100001111000011100110111100110 h
b00000110101100010100001001111001 j
b1000 l
b10101111100001100100101100011111 P
b11011001010111011111101111111111 2
b11010110001010000100111100100000 7
1W
b00001011011110011111100001011111110110010101110111111011111111111001111011110101001110111111111101001111111001010101101011011111 X
b00001011011110011111100001011111 [
b10011110111101010011101111111111 \
b11011001010111011111101111111111 ]
b01001111111001010101101011011111 ^
#256
0W
#261
b11011001010111011111101111111111 a
b10011110111101010011101111111111 b
b00000000000000000000000111000101 C
b01001111111001010101101011011111 c
b10101111100001100100101100011111 d
b00000001111000100101110111011111 E
b01001 g
b11000011001101110000011111010110 h
b11100010101010010010111000001001 j
b1001 l
b00000001111000100101110111011111 O
b10101111100001100100101100011111 1
b01010010010111000001001000000000 7
1W
b10101111100001100100101100011111110110010101110111111011111111111001111011110101001110111111111101001111111001010101101011011111 X
b01001111111001010101101011011111 [
b11011001010111011111101111111111 \
b10101111100001100100101100011111 ]
b10011110111101010011101111111111 ^
#266
0W
#271
b10101111100001100100101100011111 a
b11011001010111011111101111111111 b
b00000000000000000010111011100011 C
b10011110111101010011101111111111 c
b00000001111000100101110111011111 d
b00101010101110111011111111111111 E
b00000000000000000000000000000000 f
b01110 g
b11110100110101010000110110000111 h
b10111011100011001010001101100101 j
b1010 l
b00101010101110111011111111111111 R
b00000001111000100101110111011111 4
b00101000110110010100000000000000 7
1W
b10101111100001100100101100011111110110010101110111111011111111111001111011110101001110111111111100000001111000100101110111011111 X
b10011110111101010011101111111111 [
b10101111100001100100101100011111 \
b00000001111000100101110111011111 ]
b11011001010111011111101111111111 ^
#276
0W
#281
b00000001111000100101110111011111 a
b10101111100001100100101100011111 b
b00000000000001001001100110100011 C
b11011001010111011111101111111111 c
b00101010101110111011111111111111 d
b00110111011011111011111111111111 E
b10100 g
b01000101010110100001010011101101 h
b01001001100110100011000011001011 j
b1011 l
b00110111011011111011111111111111 Q
b00101010101110111011111111111111 3
b00001100101100000000000000000000 7
1W
b10101111100001100100101100011111110110010101110111111011111111110010101010111011101111111111111100000001111000100101110111011111 X
b11011001010111011111101111111111 [
b00000001111000100101110111011111 \
b00101010101110111011111111111111 ]
b10101111100001100100101100011111 ^
#286
0W
#291
b00101010101110111011111111111111 a
b00000001111000100101110111011111 b
b00000000000000000000000000010000 C
b10101111100001100100101100011111 c
b00110111011011111011111111111111 d
b11010100001011100100010001011111 E
b00101 g
b10101001111000111110100100000101 h
b10000100111001011111010000100011 j
b1100 l
b11010100001011100100010001011111 P
b00110111011011111011111111111111 2
b10011100101111101000010001100000 7
1W
b10101111100001100100101100011111001101110110111110111111111111110010101010111011101111111111111100000001111000100101110111011111 X
b10101111100001100100101100011111 [
b00101010101110111011111111111111 \
b00110111011011111011111111111111 ]
b00000001111000100101110111011111 ^
#296
0W
#301
b00110111011011111011111111111111 a
b00101010101110111011111111111111 b
b00000000000000000000000000101000 C
b00000001111000100101110111011111 c
b11010100001011100100010001011111 d
b01010100001110101011000001111111 E
b01001 g
b11111100111011111010001111111000 h
b00010100010000000000011000110110 j
b1101 l
b01010100001110101011000001111111 O
b11010100001011100100010001011111 1
b10000000000011000110110000000000 7
1W
b11010100001011100100010001011111001101110110111110111111111111110010101010111011101111111111111100000001111000100101110111011111 X
b00000001111000100101110111011111 [
b00110111011011111011111111111111 \
b11010100001011100100010001011111 ]
b00101010101110111011111111111111 ^
#306
0W
